<?xml version="1.0" encoding="UTF-8" standalone="no"?>
<svg
   xmlns:dc="http://purl.org/dc/elements/1.1/"
   xmlns:cc="http://creativecommons.org/ns#"
   xmlns:rdf="http://www.w3.org/1999/02/22-rdf-syntax-ns#"
   xmlns:svg="http://www.w3.org/2000/svg"
   xmlns="http://www.w3.org/2000/svg"
   version="1.1"
   id="svg2"
   xml:space="preserve"
   width="318.87238"
   height="257.77356"
   viewBox="0 0 318.87237 257.77356"><metadata
     id="metadata8"><rdf:RDF><cc:Work
         rdf:about=""><dc:format>image/svg+xml</dc:format><dc:type
           rdf:resource="http://purl.org/dc/dcmitype/StillImage" /><dc:title></dc:title></cc:Work></rdf:RDF></metadata><defs
     id="defs6" /><path
     id="path16"
     d="M 70.261719,1 5.416016,13.238281 17.654297,78.083983 82.500005,65.845703 Z M 64.986328,7.492187 75.220703,61.726562 65.0625,63.642578 56.960937,20.957031 54.314453,65.671875 43.802734,67.65625 25.074219,26.976562 33.087891,69.677734 22.929687,71.59375 12.693359,17.359375 29.142578,14.255859 45.865234,49.412109 48.5625,10.589844 Z"
     style="fill:#42b23c;fill-opacity:1;fill-rule:nonzero;stroke:none;stroke-width:0.13333333" /><path
     id="path20"
     d="M 28.548828,78.597653 5.582031,140.46289 67.447266,163.42773 90.412105,101.5625 Z m 7.4375,8.51953 19.029297,7.06446 c 4.2916,1.592 7.439046,3.13753 9.445312,4.63086 2.692667,2.018667 4.694393,4.568337 6.00586,7.652337 1.308933,3.084 1.914986,6.48765 1.814453,10.20899 -0.102134,3.724 -1.052097,8.00942 -2.851563,12.85742 -1.580667,4.25867 -3.471875,7.73315 -5.671874,10.42382 -2.688535,3.28667 -5.660283,5.65166 -8.916016,7.0918 -2.462,1.0948 -5.411609,1.56566 -8.84961,1.41406 -2.569333,-0.12453 -5.775227,-0.9014 -9.621093,-2.33007 l -19.591797,-7.26953 z m 7.195313,12.64258 -12.699219,34.214847 7.751953,2.8789 c 2.899999,1.076 5.053205,1.68794 6.460938,1.83594 1.8412,0.204 3.5033,0.005 4.990234,-0.59375 1.486,-0.59866 3.009778,-1.92127 4.570312,-3.97461 1.559333,-2.05333 3.081654,-5.07759 4.564454,-9.07226 1.481732,-3.99066 2.268128,-7.18728 2.361328,-9.58594 0.0916,-2.396 -0.271577,-4.431 -1.089844,-6.09766 -0.819333,-1.668 -2.118611,-3.07084 -3.902344,-4.21484 -1.3292,-0.86667 -4.10953,-2.08621 -8.341797,-3.65821 z"
     style="fill:#42b23c;fill-opacity:1;fill-rule:nonzero;stroke:none;stroke-width:0.13333333" /><path
     id="path24"
     d="M 65.931641,166.49804 1,178.26757 l 11.769531,64.9336 64.931641,-11.77149 z m -22.824219,10.17969 c 2.175067,-0.024 4.197379,0.37955 6.070312,1.21289 1.8724,0.83226 3.534149,2.09028 4.988282,3.77735 1.453067,1.6848 2.391339,3.70158 2.816406,6.04492 0.460933,2.5416 0.197337,4.99786 -0.789063,7.36718 -0.985466,2.37028 -2.554717,4.29823 -4.708984,5.78516 3.4792,0.3656 6.316205,1.54883 8.513672,3.54883 2.1968,2.0052 3.581591,4.57383 4.15039,7.71289 0.447868,2.46987 0.306785,4.97917 -0.416015,7.52344 -0.7256,2.54266 -1.953233,4.6933 -3.6875,6.45117 -1.7344,1.75413 -4.027259,3.05927 -6.880859,3.9082 -1.7916,0.52707 -6.173504,1.44896 -13.148438,2.76563 l -18.474609,3.34961 -9.84375,-54.31055 21.701171,-3.93359 c 4.295867,-0.77813 7.531919,-1.17913 9.708985,-1.20313 z m -3.140625,9.52344 c -1.106667,0.0729 -4.233213,0.57589 -9.382813,1.50976 l -6.283203,1.13672 2.277344,12.56055 7.169922,-1.29687 c 4.262534,-0.77241 6.897622,-1.31496 7.910156,-1.62696 1.832266,-0.55933 3.18632,-1.47729 4.064453,-2.74609 0.876133,-1.26934 1.156025,-2.78054 0.837891,-4.53321 -0.303733,-1.68066 -1.012953,-2.95987 -2.126953,-3.84374 -1.1152,-0.88133 -2.604264,-1.26642 -4.466797,-1.16016 z m 5.443359,21.56445 c -1.827212,0.0298 -4.610609,0.3848 -8.349609,1.0625 l -8.847656,1.60156 2.628906,14.50586 10.142578,-1.83984 c 3.948534,-0.71467 6.433745,-1.27816 7.455078,-1.69336 1.574534,-0.59107 2.770338,-1.55144 3.585938,-2.88477 0.8172,-1.33333 1.050105,-2.96218 0.701172,-4.88671 -0.294801,-1.6292 -0.938794,-2.93654 -1.933594,-3.92774 -0.995867,-0.9932 -2.287933,-1.61244 -3.875,-1.85937 -0.396733,-0.062 -0.898742,-0.0881 -1.507813,-0.0781 z"
     style="fill:#42b23c;fill-opacity:1;fill-rule:nonzero;stroke:none;stroke-width:0.13333333" /><path
     d="m 294.10178,177.35689 1.93334,-1.93227 c -1.50133,-0.7376 -3.04134,-1.3792 -4.60533,-1.93866 l 1.47067,-4.5952 h 7.73732 c 0,0 8.42267,-6.7272 9.00133,-21.5824 h 0.0333 c 0.88666,0 1.60533,-0.71867 1.60533,-1.60614 0,-0.88653 -0.71867,-1.60693 -1.60533,-1.60693 h -46.78267 c -0.88666,0 -1.60532,0.7204 -1.60532,1.60693 0,0.88747 0.71866,1.60614 1.60532,1.60614 h 0.34801 c -0.0627,3.7256 0.0693,12.37346 2.33199,17.83706 h -5.40267 c -0.228,0 -0.44533,0.0255 -0.65733,0.064 l -4.25999,-19.68386 c 0.49067,-0.14427 0.79199,-0.6848 0.672,-1.25027 -0.124,-0.59067 -0.65733,-0.97867 -1.188,-0.86667 l -0.836,0.17734 -1.2,-5.76 4.50533,-4.91067 c 1.33867,-1.588 1.04,-2.568 1.04,-2.568 -0.0373,-0.0533 -0.0747,-0.096 -0.10933,-0.144 0.02,-0.1 0.0333,-0.2 0.036,-0.30533 h 0.036 c 0,-1.56267 -0.58,-2.924 -1.67467,-3.93734 -0.0987,-0.092 -0.20666,-0.17333 -0.31066,-0.256 0.964,-1.692 1.228,-3.77333 0.15466,-5.92133 -2.87733,-5.75333 -10.548,-4.31467 -10.548,-4.31467 l -0.72,-2.39733 c 0,0 -3.35466,-1.67733 -6.95066,-3.83467 -3.59467,-2.15733 -10.54667,-14.142657 -19.416,-29.243997 -3.796,-6.462662 -8.028,-12.043995 -11.63067,-16.318661 -1.05067,-4.290667 -3.16133,-8.326667 -6.85067,-11.622667 l 2.85067,-6.044 c 0,0 2.60667,0.496 5.588,0 2.98,-0.497333 1.86267,-4.718666 1.86267,-4.718666 l 0.49466,-0.497333 -0.24666,-0.372 0.62133,-0.496 v -1.366667 c 1.48933,0.125333 2.35867,-1.613333 2.35867,-1.613333 l -1.98667,-2.733334 c 0.49733,-2.978666 -0.87067,-9.187999 -0.87067,-9.187999 0,0 1.75734,-0.226667 1.07334,-2.166667 0,0 1.59733,-1.024 -1.14,-1.824 0,0 -0.22667,-0.913333 -1.71067,-0.685333 l 0.11333,-0.797334 c 0,0 -17.564,-9.351999 -31.01999,0.570667 0,0 -0.34134,4.448 3.99333,5.816 0,0 -3.30933,-0.113333 -2.73867,1.710667 0,0 -4.10666,1.369333 -2.85066,3.649333 0,0 -1.93867,0.684 -1.02534,2.394666 0,0 -1.59733,3.536 0,4.105334 0,0 -0.45866,2.509333 3.98933,1.938666 0,0 0.001,3.194667 3.87867,2.624 0,0 5.93199,2.737333 4.78933,5.702667 l -0.704,2.209333 c 0,0 -21.33333,-4.076 -25.16799,13.182666 l -0.0747,3.054667 c 0,0 1.03334,6.533333 -3.04266,10.129338 -4.076,3.59599 -5.03333,7.19066 -5.75201,13.18399 -0.72,5.992 -1.43999,12.462667 5.03335,14.621337 6.47066,2.15866 6.47066,2.15866 6.47066,2.15866 0,0 0.24,6.232 -2.636,10.30667 l 0.96,0.72 c 0,0 -11.07866,13.99467 -1.552,21.50667 -0.29066,1.61333 -0.824,6.71666 0.904,9.54373 l 7.01067,-0.562 1.10267,8.5568 -16.65734,21.79427 c -3.232,-2.1308 -6.75866,-3.84174 -10.50933,-5.06147 l 1.31467,-4.40627 c 0.056,-0.1916 0.0773,-0.38226 0.0773,-0.56826 h 6.06933 c 0.868,0 1.57067,-0.70467 1.57067,-1.5728 0,-0.8688 -0.70267,-1.5724 -1.57067,-1.5724 h -39.78293 c -0.86827,0 -1.57187,0.7036 -1.57187,1.5724 0,0.86813 0.7036,1.5728 1.57187,1.5728 h 4.09893 c 0.0107,0.11 0.028,0.2204 0.0587,0.33186 l 1.24667,4.60934 c -5.022,1.62026 -9.65267,4.1188 -13.7032,7.32293 -1.95,0 -4.763605,0 -6.481205,0 -2.8308,0 -2.51667,1.72973 -2.51667,1.72973 v 7.89787 c -3.46627,5.0464 -5.90787,10.84893 -7.00893,17.1104 l 1.9584,0.6896 c -0.3756,2.25 -0.5808,4.5588 -0.5808,6.914 0,23.05106 18.687065,41.73706 41.736405,41.73706 19.44266,0 35.77866,-13.2928 40.41866,-31.28653 0.51334,0.4964 1.26667,1.2204 2.19067,2.0928 -0.092,0.0687 -0.18,0.14947 -0.26133,0.24213 -0.636,0.71614 -0.57067,1.81507 0.148,2.45054 l 7.47866,6.62493 c 0.71733,0.63547 1.816,0.5688 2.45333,-0.1484 0.0853,-0.0979 0.15734,-0.20467 0.21867,-0.31507 2.36267,1.88014 4.47867,3.33334 5.73467,3.68227 4.316,1.19787 0.72133,0 0.72133,0 0,0 3.83467,-1.67973 2.396,-7.43227 l -1.70267,-2.1276 c 4.80134,-1.29946 8.39733,-5.50946 8.776,-10.62506 15.38134,-3.20307 25.864,-12.23173 32.48134,-27.72907 5.524,-12.9376 19.61599,-20.03133 24.35732,-22.10946 0.38667,1.51306 0.86933,3.39893 1.40533,5.48746 -2.04133,1.03027 -4.03066,2.22667 -5.94,3.60627 -14.14933,10.21827 -20.38,27.38133 -17.404,43.50266 l 1.45334,-0.176 c 3.524,19.48174 20.55866,34.2604 41.05601,34.2604 23.05065,0 41.73599,-18.686 41.73599,-41.73706 0,-16.6176 -9.71333,-30.96507 -23.77066,-37.6796 z m -18.07067,32.31667 c -1.04266,0 -2.012,0.2932 -2.844,0.79533 -4.144,-4.11413 -5.74266,-10.38707 -5.76533,-10.48293 l -4.964,-19.4052 c 4.236,-1.6864 8.84801,-2.62547 13.67867,-2.62547 3.724,0 7.31734,0.55787 10.71067,1.58333 l -9.692,30.24947 c -0.36266,-0.0745 -0.73866,-0.11453 -1.12401,-0.11453 z M 195.96845,106.83929 c 0.95867,-1.91733 5.27333,-9.587997 5.27333,-9.587997 0,0 0.24,-0.46267 0.63067,-1.29733 2.03333,0.81866 4.70533,1.928 6.32133,2.73466 2.876,1.438667 9.10933,4.315997 11.02533,7.671997 1.91867,3.35467 2.63734,5.752 6.952,9.348 4.316,3.59467 10.068,6.47067 10.068,6.47067 l 3.83467,2.63733 2.876,-0.47866 c 0,0 1.43867,3.596 5.51467,5.03333 1.61733,0.57067 3.648,0.0813 5.332,-1.072 0.12266,0.08 0.23733,0.16267 0.33733,0.256 0.288,0.26667 0.476,1.19067 0.476,1.304 0,0.28267 0.072,0.54667 0.18933,0.784 l -4.46,4.364 c -2.48532,2.04533 -1.708,3.36267 -1.708,3.36267 l 1.56667,5.996 -1.42533,0.3008 c -0.53067,0.11146 -0.86134,0.6812 -0.736,1.27133 0.12401,0.59067 0.656,0.97813 1.18533,0.8656 l 0.048,-0.01 2.33866,10.8068 c -4.89734,1.9948 -24.48934,10.95827 -32.39734,29.47867 -3.03466,7.10667 -6.87733,12.21973 -12.00265,15.63747 -2.384,-1.54787 -4.768,-2.15267 -4.768,-2.15267 l 0.71866,-1.67907 c 0,0 1.43867,-0.23813 2.15867,-0.47866 0.71867,-0.2396 22.53066,-29.48334 28.764,-37.6328 6.23333,-8.14947 5.512,-15.34174 5.512,-15.34174 -3.50534,-10.12853 -34.08,-19.94186 -45.41467,-23.2632 0.62,-1.528 0.88267,-4.044 -0.36933,-8.13866 0,0 1.2,-5.272 2.15867,-7.19067 z m -29.03733,103.5124 h -31.39199 l 18.24532,-23.87093 c 7.07733,5.86573 11.93468,14.30733 13.14667,23.87093 z m -32.464,-6.09587 7.28667,-24.43386 c 2.96534,0.9812 5.764,2.32293 8.34666,3.97813 z m 0.40666,8.05467 c -0.001,-0.002 -0.001,-0.002 -0.003,-0.003 h 32.256 c 0.0573,0.79053 0.0933,1.5864 0.10266,2.38947 z m 39.76134,1.19746 -0.70534,1.6588 c 0,-0.0443 0.003,-0.086 0.003,-0.13026 0,-0.9176 -0.0387,-1.82547 -0.0933,-2.72907 h 1.38666 z m -44.48,-35.55266 c 2.952,0 5.82,0.3568 8.57333,1.01253 l -9.02533,30.25254 -8.17733,-30.24107 c 2.77067,-0.66253 5.65867,-1.024 8.62933,-1.024 z m 5.12933,38.9536 31.70667,2.3376 c -0.13334,1.18226 -0.31999,2.3448 -0.56134,3.48946 l -31.39599,-5.20306 c 0.0947,-0.20307 0.18134,-0.4088 0.25066,-0.624 z m 61.832,-3.91507 0.432,-1.1708 c 2.04533,-0.45573 3.98,-1.03653 5.808,-1.74226 l 4.70533,1.55373 c -3.016,1.51813 -6.336,2.6588 -9.97733,3.44106 -0.25734,-0.72906 -0.58134,-1.4244 -0.968,-2.08173 z m 9.87866,-62.52813 c 0,0 7.19067,0.95893 8.86934,2.63693 1.67733,1.6776 -1.67867,6.71147 -1.67867,6.71147 0,0 -2.15733,5.27347 -1.91733,3.83493 0.24,-1.438 -5.27334,-13.18333 -5.27334,-13.18333 z m -14.62266,17.9776 0.24,3.1156 -0.71867,6.9532 -10.82132,21.94267 -5.48,-42.50627 0.0653,-0.0869 -0.0853,-0.0651 -1.164,-9.0272 7.01333,1.20267 c 3.07067,8.1156 7.01067,16.33333 10.95066,18.47133 z m -20.71067,-5.3536 5.76934,44.74787 -1.24,2.51413 h -2.512 c -1.25334,-11.7292 -7.15734,-22.08653 -15.82934,-29.18907 z m -52.98932,5.34107 h 23.19732 l -1.22399,4.10946 c -3.36267,-0.8308 -6.87467,-1.2792 -10.49066,-1.2792 -3.57467,0 -7.04934,0.44067 -10.37867,1.2552 z m 11.48267,83.68813 c -20.44627,0 -37.080675,-16.6344 -37.080675,-37.0824 0,-16.37493 10.673475,-30.2968 25.426005,-35.1932 l 8.304,30.70107 c -1.25333,0.92079 -2.10133,2.35826 -2.228,4.00159 -0.024,0.20987 -0.04,0.42294 -0.04,0.64054 0,3.04426 2.46933,5.51306 5.51333,5.51306 1.40933,0 2.692,-0.53386 3.66533,-1.4036 l 32.25466,5.3448 c -4.244,15.80467 -18.68799,27.47814 -35.81465,27.47814 z m 96.55333,-61.83867 c -3.80001,8.90054 -8.88267,15.36467 -15.62001,19.63387 0.45734,-1.67187 0.22133,-2.63907 0.22133,-2.63907 -0.17067,-0.3984 -0.38,-0.76813 -0.60132,-1.12493 5.52665,-3.93227 9.77065,-9.58747 13,-17.1484 6.84,-16.02093 23.51999,-24.23027 28.952,-26.54373 l 0.70265,3.24626 c -5.57065,2.4412 -20.48133,10.1208 -26.65465,24.576 z m 32.74,-21.4588 c 0.23066,0.0448 0.46933,0.0765 0.71866,0.0765 h 16.44799 c 0.0333,0 0.0653,-0.006 0.10001,-0.007 h 13.54266 l -1.22133,3.814 c -9.16667,-2.6916 -19.13734,-2.38067 -28.28934,1.18906 z m 16.68799,83.29747 c -20.44666,0 -37.08267,-16.6344 -37.08267,-37.0824 0,-14.1448 7.964,-26.46093 19.64133,-32.71187 2.324,9.08174 4.77467,18.66134 4.772,18.64894 0.0947,0.3916 1.97067,7.83173 7.24534,12.77133 -0.124,0.46093 -0.196,0.9416 -0.196,1.4416 0,3.04426 2.468,5.51306 5.51466,5.51306 3.044,0 5.512,-2.4688 5.512,-5.51306 0,-1.75 -0.81733,-3.3072 -2.08933,-4.31667 l 9.776,-30.51973 c 14.00267,5.30307 23.988,18.8484 23.988,34.6864 0,20.448 -16.63333,37.0824 -37.08133,37.0824"
     style="fill:#42b23c;fill-opacity:1;fill-rule:nonzero;stroke:none;stroke-width:0.13333333"
     id="path28" /></svg>